mc16_13TeV.303779.Pythia8EvtGen_A14NNPDF23LO_Ztaue_LeptonFilter.deriv.DAOD_HIGG4D1.e4245_s3126_r10724_p3759
mc16_13TeV.303778.Pythia8EvtGen_A14NNPDF23LO_Ztaumu_LeptonFilter.deriv.DAOD_HIGG4D1.e4245_s3126_r10724_p3759
mc16_13TeV.345124.PowhegPy8EG_NNLOPS_nnlo_30_ggH125_etau_filt.deriv.DAOD_HIGG4D1.e5814_s3126_r10724_p3749
mc16_13TeV.345125.PowhegPy8EG_NNLOPS_nnlo_30_ggH125_mutau_filt.deriv.DAOD_HIGG4D1.e5814_s3126_r10724_p3749
mc16_13TeV.346194.PowhegPy8EG_NNPDF30_AZNLOCTEQ6L1_VBFH125_etau_filt.deriv.DAOD_HIGG4D1.e7259_s3126_r10724_p3759
mc16_13TeV.346195.PowhegPy8EG_NNPDF30_AZNLOCTEQ6L1_VBFH125_mutau_filt.deriv.DAOD_HIGG4D1.e7259_s3126_r10724_p3759
